[
  {
    "name": "toc",
    "weight": "100",
    "params": "",
    "default_params": ""
  },
  {
    "name": "index",
    "weight": "100",
    "params": "",
    "default_params": ""
  },
  {
    "name": "status",
    "weight": "100",
    "params": "",
    "default_params": ""
  },
  {
    "name": "contributors",
    "weight": "100",
    "params": "",
    "default_params": ""
  },
  {
    "name": "livesearch",
    "weight": "100",
    "params": "",
    "default_params": ""
  },
  {
    "name": "detailssummary",
    "weight": "100",
    "params": "cql= label \\=&quot;{report_label}&quot;",
    "default_params": ""
  },
  {
    "name": "excerpt-include",
    "weight": "100",
    "params": "",
    "default_params": "{source_page_title}"
  }
]