{
  "product": "Bitbucket",
  "duration": 600000,
  "workload": "bitbucket-mixed",

  "threads": [
    {
      "name": "1-node",
      "instance": {
        "name": "1-node",
        "version": "4.11.0",
        "snapshot": "e3-small",
        "template": "BitbucketDataCenter",
        "properties": [
          "plugin.bitbucket-git.throttle.ref.advertisement=false",
          "plugin.bitbucket-scm-cache.upload-pack.enabled=false",
          "throttle.resource.scm-hosting.strategy=adaptive",
          "throttle.resource.scm-hosting.adaptive.limit.min=8",
          "throttle.resource.scm-hosting.adaptive.limit.max=100",
          "throttle.resource.scm-hosting.adaptive.interval=2",
          "throttle.resource.scm-hosting.adaptive.growth.max=1.0",
          "throttle.resource.scm-hosting.adaptive.target.cpu=0.8"
        ],
        "parameters": {
          "ClusterNodeMin": "1",
          "ClusterNodeMax": "1"
        }
      },
      "worker": {
        "name": "worker-cluster-1",
        "template": "WorkerCluster",
        "parameters": {
          "ClusterSize": "4"
        }
      },
      "stages": [
        {
          "clients": 40
        },
        {
          "clients": 80
        },
        {
          "clients": 160
        },
        {
          "clients": 320
        },
        {
          "clients": 640
        }
      ]
    },
    {
      "name": "3-node",
      "instance": {
        "name": "3-node",
        "version": "4.11.0",
        "snapshot": "e3-small",
        "template": "BitbucketDataCenter",
        "properties": [
          "plugin.bitbucket-git.throttle.ref.advertisement=false",
          "plugin.bitbucket-scm-cache.upload-pack.enabled=false",
          "throttle.resource.scm-hosting.strategy=adaptive",
          "throttle.resource.scm-hosting.adaptive.limit.min=8",
          "throttle.resource.scm-hosting.adaptive.limit.max=100",
          "throttle.resource.scm-hosting.adaptive.interval=2",
          "throttle.resource.scm-hosting.adaptive.growth.max=1.0",
          "throttle.resource.scm-hosting.adaptive.target.cpu=0.8"
        ],
        "parameters": {
          "ClusterNodeMin": "3",
          "ClusterNodeMax": "3"
        }
      },
      "worker": {
        "name": "worker-cluster-3",
        "template": "WorkerCluster",
        "parameters": {
          "ClusterSize": "4"
        }
      },
      "stages": [
        {
          "clients": 40
        },
        {
          "clients": 80
        },
        {
          "clients": 160
        },
        {
          "clients": 320
        },
        {
          "clients": 640
        }
      ]
    },
    {
      "name": "6-node",
      "instance": {
        "name": "6-node",
        "version": "4.11.0",
        "snapshot": "e3-small",
        "template": "BitbucketDataCenter",
        "properties": [
          "plugin.bitbucket-git.throttle.ref.advertisement=false",
          "plugin.bitbucket-scm-cache.upload-pack.enabled=false",
          "throttle.resource.scm-hosting.strategy=adaptive",
          "throttle.resource.scm-hosting.adaptive.limit.min=8",
          "throttle.resource.scm-hosting.adaptive.limit.max=100",
          "throttle.resource.scm-hosting.adaptive.interval=2",
          "throttle.resource.scm-hosting.adaptive.growth.max=1.0",
          "throttle.resource.scm-hosting.adaptive.target.cpu=0.8"
        ],
        "parameters": {
          "ClusterNodeMin": "6",
          "ClusterNodeMax": "6"
        }
      },
      "worker": {
        "name": "worker-cluster-6",
        "template": "WorkerCluster",
        "parameters": {
          "ClusterSize": "12"
        }
      },
      "stages": [
        {
          "clients": 40
        },
        {
          "clients": 80
        },
        {
          "clients": 160
        },
        {
          "clients": 320
        },
        {
          "clients": 640
        }
      ]
    },
    {
      "name": "10-node",
      "instance": {
        "name": "10-node",
        "version": "4.11.0",
        "snapshot": "e3-small",
        "template": "BitbucketDataCenter",
        "properties": [
          "plugin.bitbucket-git.throttle.ref.advertisement=false",
          "plugin.bitbucket-scm-cache.upload-pack.enabled=false",
          "throttle.resource.scm-hosting.strategy=adaptive",
          "throttle.resource.scm-hosting.adaptive.limit.min=8",
          "throttle.resource.scm-hosting.adaptive.limit.max=100",
          "throttle.resource.scm-hosting.adaptive.interval=2",
          "throttle.resource.scm-hosting.adaptive.growth.max=1.0",
          "throttle.resource.scm-hosting.adaptive.target.cpu=0.8"
        ],
        "parameters": {
          "ClusterNodeMin": "10",
          "ClusterNodeMax": "10"
        }
      },
      "worker": {
        "name": "worker-cluster-1",
        "template": "WorkerCluster",
        "parameters": {
          "ClusterSize": "4"
        }
      },
      "stages": [
        {
          "clients": 40
        },
        {
          "clients": 80
        },
        {
          "clients": 160
        },
        {
          "clients": 320
        },
        {
          "clients": 640
        }
      ]
    }
  ]
}
